…
``` r
#2) Retrieve GBIF taxonomy
#name_backbone_checklist()
#Lookup names in the GBIF backbone taxonomy in a checklist.

gbif_names <- name_backbone_checklist(name_data = Poll_spp, order = "   Hymenoptera")
gbif_names
```

    # A tibble: 102 × 26
       usageKey scientificName       canonicalName rank  status confidence matchType
          <int> <chr>                <chr>         <chr> <chr>       <int> <chr>    
     1  1357170 Andrena alfkenella … Andrena alfk… SPEC… ACCEP…        100 EXACT    
     2  1356887 Andrena bicolor Fab… Andrena bico… SPEC… ACCEP…        100 EXACT    
     3  1358259 Andrena chrysoscele… Andrena chry… SPEC… ACCEP…        100 EXACT    
     4  1358088 Andrena cineraria (… Andrena cine… SPEC… ACCEP…        100 EXACT    
     5  1357872 Andrena dorsata (Ki… Andrena dors… SPEC… ACCEP…        100 EXACT    
     6  1357156 Andrena flavipes Pa… Andrena flav… SPEC… ACCEP…        100 EXACT    
     7  1357364 Andrena hattorfiana… Andrena hatt… SPEC… ACCEP…        100 EXACT    
     8  1357222 Andrena labialis (K… Andrena labi… SPEC… ACCEP…        100 EXACT    
     9  1357207 Andrena labiata Fab… Andrena labi… SPEC… ACCEP…        100 EXACT    
    10  1357013 Andrena minutula (K… Andrena minu… SPEC… ACCEP…        100 EXACT    
    # ℹ 92 more rows
    # ℹ 19 more variables: kingdom <chr>, phylum <chr>, order <chr>, family <chr>,
    #   genus <chr>, species <chr>, kingdomKey <int>, phylumKey <int>,
    #   classKey <int>, orderKey <int>, familyKey <int>, genusKey <int>,
    #   speciesKey <int>, synonym <lgl>, class <chr>, acceptedUsageKey <int>,
    #   verbatim_name <chr>, verbatim_index <dbl>, verbatim_order <chr>

``` r
#Match and unmatched records
matched <-  gbif_names |>  filter(matchType == "EXACT") #92 matched
matched
```

    # A tibble: 92 × 26
       usageKey scientificName       canonicalName rank  status confidence matchType
          <int> <chr>                <chr>         <chr> <chr>       <int> <chr>    
     1  1357170 Andrena alfkenella … Andrena alfk… SPEC… ACCEP…        100 EXACT    
     2  1356887 Andrena bicolor Fab… Andrena bico… SPEC… ACCEP…        100 EXACT    
     3  1358259 Andrena chrysoscele… Andrena chry… SPEC… ACCEP…        100 EXACT    
     4  1358088 Andrena cineraria (… Andrena cine… SPEC… ACCEP…        100 EXACT    
     5  1357872 Andrena dorsata (Ki… Andrena dors… SPEC… ACCEP…        100 EXACT    
     6  1357156 Andrena flavipes Pa… Andrena flav… SPEC… ACCEP…        100 EXACT    
     7  1357364 Andrena hattorfiana… Andrena hatt… SPEC… ACCEP…        100 EXACT    
     8  1357222 Andrena labialis (K… Andrena labi… SPEC… ACCEP…        100 EXACT    
     9  1357207 Andrena labiata Fab… Andrena labi… SPEC… ACCEP…        100 EXACT    
    10  1357013 Andrena minutula (K… Andrena minu… SPEC… ACCEP…        100 EXACT    
    # ℹ 82 more rows
    # ℹ 19 more variables: kingdom <chr>, phylum <chr>, order <chr>, family <chr>,
    #   genus <chr>, species <chr>, kingdomKey <int>, phylumKey <int>,
    #   classKey <int>, orderKey <int>, familyKey <int>, genusKey <int>,
    #   speciesKey <int>, synonym <lgl>, class <chr>, acceptedUsageKey <int>,
    #   verbatim_name <chr>, verbatim_index <dbl>, verbatim_order <chr>
…
df.e <- df.e |>
  left_join(fixing) |>
  mutate(Fixed_bee_name = ifelse(is.na(sci_name), Bee_name, sci_name)) |>
  select(- sci_name)
```

    Joining with `by = join_by(Bee_name)`

``` r
df.e
```

    # A tibble: 1,052 × 4
       Country Date     Bee_name               Fixed_bee_name         
       <chr>   <chr>    <chr>                  <chr>                  
     1 Germany 7-6-2022 Coelioxys alata        Coelioxys alatus       
     2 Germany 7-6-2022 Andrena chrysosceles   Andrena chrysosceles   
     3 Germany 7-6-2022 Bombus lapydarius      Bombus lapidarius      
     4 Germany 7-6-2022 Lasioglossum vilosulum Lasioglossum villosulum
     5 Germany 7-6-2022 Anthidium byssinum     Anthidium byssinum     
     6 Germany 7-6-2022 Bombus lapidarius      Bombus lapidarius      
     7 Germany 7-6-2022 Lasioglossum pauxillum Lasioglossum pauxillum 
     8 Germany 7-6-2022 Andrena alfkenella     Andrena alfkenella     
     9 Germany 7-6-2022 Osma aurulenta         Osmia aurulenta        
    10 Germany 4-8-2022 Bombus lapidarius      Bombus lapidarius      
    # ℹ 1,042 more rows
…
    Joining with `by = join_by(word)`

    # A tibble: 115 × 2
    # Groups:   word [115]
       word                   countWords
       <chr>                       <int>
     1 göttingen                       7
     2 georgaugustuniversität          4
     3 study                           4
     4 wild                            4
     5 pollinators                     4
     6 landscape                       4
     7 kok                             3
     8 effect                          3
     9 wild_bees                       3
    10 hoverflies                      3
    # ℹ 105 more rows
…
return(output)
  
}


textos_df_clean <- textos_df |>
  mutate(r_corr_gram = map(text, clean_text_R_corr_20))


textos_df_clean |>
  unnest(r_corr_gram) |>
  select(document, word2, p_together)
```

    # A tibble: 22 × 3
       document                                        word2          p_together
       <chr>                                           <chr>               <dbl>
     1 1570-Texto del artículo-5970-1-10-20180421.pdf  ecoinformática      25.7 
     2 1570-Texto del artículo-5970-1-10-20180421.pdf  grupo_trabajo       23.1 
     3 1570-Texto del artículo-5970-1-10-20180421.pdf  iavs                18.0 
     4 2256-Texto del artículo-10468-1-10-20210709.pdf ecoinformática      67.9 
     5 2256-Texto del artículo-10468-1-10-20210709.pdf nota                21.5 
     6 2256-Texto del artículo-10468-1-10-20210709.pdf cienciometría        8.48
     7 2332-Texto del artículo-11367-1-10-20220420.pdf ecoinformática      63.0 
     8 2527-Texto del artículo-12698-1-10-20230411.pdf ecoinformática     201.  
     9 2745-Texto del artículo-14476-9-10-20241126.pdf ecoinformática      60.1 
    10 2745-Texto del artículo-14476-9-10-20241126.pdf verónica            41.1 
    # ℹ 12 more rows
…
